A4-Kunal Khurana
…
library(lubridate)
cr007_kk <- data007_kk %>% mutate(date = make_date(YEAR, MONTH))
summary(cr007_kk$date)

##         Min.      1st Qu.       Median         Mean      3rd Qu.         Max. 
## "2003-01-01" "2007-05-01" "2011-10-16" "2011-10-25" "2016-04-01" "2020-10-01"

Answer The minimum vale is 2003-01-01 and the maximum value is 2020-10-01.

(1pt) Clean your data to only include the crime types Break and Enter Commercial and Break and Enter Residential/Other and to stop at September 2020 (delete October 2020 observations since we do not have a full month).

cl007_kk <- cr007_kk %>% group_by(TYPE, YEAR, MONTH) %>% filter(TYPE %in% c("Break and Enter Commercial","Break and Enter Residential/Other")) 
cl007_kk %>% filter(date!="2020-10-01")

## # A tibble: 426 x 5
## # Groups:   TYPE, YEAR, MONTH [426]
##    TYPE                        YEAR MONTH crimes date      
##    <chr>                      <int> <int>  <int> <date>    
##  1 Break and Enter Commercial  2003     1    303 2003-01-01
##  2 Break and Enter Commercial  2003     2    254 2003-02-01
##  3 Break and Enter Commercial  2003     3    292 2003-03-01
##  4 Break and Enter Commercial  2003     4    266 2003-04-01
##  5 Break and Enter Commercial  2003     5    291 2003-05-01
##  6 Break and Enter Commercial  2003     6    307 2003-06-01
##  7 Break and Enter Commercial  2003     7    253 2003-07-01
##  8 Break and Enter Commercial  2003     8    241 2003-08-01
##  9 Break and Enter Commercial  2003     9    209 2003-09-01
## 10 Break and Enter Commercial  2003    10    306 2003-10-01
## # ... with 416 more rows
…
